{
    "Doxygen Comment": {
        "prefix": [
            "@dox",
            "@doxygen"
        ],
        "body": [
            "/**",
            " * ${0}",
            " */"
        ],
        "description": "Doxygen comment"
    },
    "Copyright": {
        "prefix": [
            "@copy",
            "@copyright"
        ],
        "body": [
            "/**",
            " * @file $TM_FILENAME",
            " *",
            " * @author ${VIM:trim(system('print-usercfg config name.long'))}",
            " * @version v1.0",
            " *",
            " * ${VIM:trim(system('print-usercfg copyright doxygen.prefix'))} $CURRENT_YEAR ${VIM:trim(system('print-usercfg copyright holder'))}",
            " */${0}"
        ],
        "description": "User-defined copyright comment"
    },
    "Document Field": {
        "prefix": [
            "@<",
            "@field",
            "@member"
        ],
        "body": [
            "/**< ${0} */"
        ],
        "description": "Doxygen field documentation"
    },
    "Document Function": {
        "prefix": [
            "@fn",
            "@func",
            "@function"
        ],
        "body": [
            "/**",
            " * ${1:FUNCTION_NAME}",
            " *${0}",
            " * ${6:@retval ${7}}",
            " *",
            " * ${2:@param ${3}}",
            " * ${4:@return ${5}}",
            " */"
        ],
        "description": "Doxygen function documentation"
    },
    "Document Macro": {
        "prefix": [
            "@macro"
        ],
        "body": [
            "/**",
            " * @def ${1:macro_name}(${2:arg_list})",
            " * ${3:MACRO_NAME}${0}",
            " *",
            " * ${4:@param ${5}}",
            " * ${6:@return ${7}}",
            " */"
        ],
        "description": "Doxygen macro documentation"
    },
    "Document Definition": {
        "prefix": [
            "@def",
            "@define",
            "@definition"
        ],
        "body": [
            "/**",
            " * @def ${1:definition_name}",
            " * ${2:DEFINITION_NAME}${0}",
            " */"
        ],
        "description": "Doxygen definition documentation"
    },
    "Document Variable": {
        "prefix": [
            "@var",
            "@variable"
        ],
        "body": [
            "/**",
            " * @var ${1:var_name}",
            " * ${2:VARIABLE_NAME}${0}",
            " */"
        ],
        "description": "Doxygen function documentation"
    },
    "Document Enum": {
        "prefix": [
            "@enum",
            "@enumeration"
        ],
        "body": [
            "/**",
            " * @enum ${1:enum_name}",
            " * ${2:ENUM_NAME}${0}",
            " */"
        ],
        "description": "Doxygen enum documentation"
    },
    "Document Struct": {
        "prefix": [
            "@struct",
            "@structure"
        ],
        "body": [
            "/**",
            " * @struct ${1:struct_name}",
            " * ${2:STRUCT_NAME}${0}",
            " */"
        ],
        "description": "Doxygen struct documentation"
    },
    "Document Typedef": {
        "prefix": [
            "@type",
            "@typedef"
        ],
        "body": [
            "/**",
            " * @typedef ${1:typedef_name}",
            " * ${2:TYPEDEF_NAME}${0}",
            " */"
        ],
        "description": "Doxygen typedef documentation"
    }
}
